<svg xmlns="http://www.w3.org/2000/svg" width="309" height="72.5" viewBox="0 0 309 72.5">
  <g id="Group_212" data-name="Group 212" transform="translate(-556 -998)">
    <g id="Group_210" data-name="Group 210" transform="translate(0 1.5)">
      <g id="Group_207" data-name="Group 207" transform="translate(555 991.73)" opacity="0.999">
        <rect id="Rectangle_17" data-name="Rectangle 17" width="118" height="24" rx="5" transform="translate(1 4.77)" fill="#141823"/>
        <rect id="Rectangle_18" data-name="Rectangle 18" width="9" height="9" transform="translate(60.364 22.407) rotate(45)" fill="#141823"/>
      </g>
      <text id="Click_here_to_edit" data-name="Click here to edit" transform="translate(563 1014)" fill="#fff" font-size="14" font-family="Lato-Regular, Lato"><tspan x="0" y="0">Click here to edit</tspan></text>
    </g>
    <g id="Group_209" data-name="Group 209" transform="translate(0 -1.5)">
      <g id="Group_208" data-name="Group 208" transform="translate(732 994.73)" opacity="0.999">
        <rect id="Rectangle_17-2" data-name="Rectangle 17" width="132" height="24" rx="5" transform="translate(1 4.77)" fill="#141823"/>
        <rect id="Rectangle_18-2" data-name="Rectangle 18" width="9" height="9" transform="translate(67.364 22.407) rotate(45)" fill="#141823"/>
      </g>
      <text id="Click_here_to_delete" data-name="Click here to delete" transform="translate(740 1017)" fill="#fff" font-size="14" font-family="Lato-Regular, Lato"><tspan x="0" y="0">Click here to delete</tspan></text>
    </g>
    <rect id="Rectangle_54" data-name="Rectangle 54" width="34" height="34" rx="2" transform="translate(598 1036.5)" fill="#00c081"/>
    <g id="baseline-create-24px" transform="translate(606 1044.5)">
      <path id="Path_5" data-name="Path 5" d="M3,12.5V15H5.5l7.374-7.374-2.5-2.5ZM14.807,5.693a.664.664,0,0,0,0-.94l-1.56-1.56a.664.664,0,0,0-.94,0l-1.22,1.22,2.5,2.5,1.22-1.22Z" fill="#fff"/>
      <path id="Path_6" data-name="Path 6" d="M0,0H18V18H0Z" fill="none"/>
    </g>
    <g id="baseline-create-24px-2" data-name="baseline-create-24px" transform="translate(790 1041.5)">
      <path id="Path_5-2" data-name="Path 5" d="M3,12.5V15H5.5l7.374-7.374-2.5-2.5ZM14.807,5.693a.664.664,0,0,0,0-.94l-1.56-1.56a.664.664,0,0,0-.94,0l-1.22,1.22,2.5,2.5,1.22-1.22Z" fill="#fff"/>
      <path id="Path_6-2" data-name="Path 6" d="M0,0H18V18H0Z" fill="none"/>
    </g>
    <g id="Rectangle_55" data-name="Rectangle 55" transform="translate(782 1036.5)" fill="none" stroke="#00c081" stroke-width="1">
      <rect width="34" height="34" rx="2" stroke="none"/>
      <rect x="0.5" y="0.5" width="33" height="33" rx="1.5" fill="none"/>
    </g>
    <g id="baseline-delete-24px" transform="translate(790 1044.5)">
      <path id="Path_7" data-name="Path 7" d="M5.571,13.667A1.253,1.253,0,0,0,6.714,15h4.571a1.253,1.253,0,0,0,1.143-1.333v-8H5.571ZM13,3.667H11L10.429,3H7.571L7,3.667H5V5h8Z" fill="#00c081"/>
      <path id="Path_8" data-name="Path 8" d="M0,0H18V18H0Z" fill="none"/>
    </g>
  </g>
</svg>
