<svg xmlns="http://www.w3.org/2000/svg" width="275.615" height="245.395" viewBox="0 0 275.615 245.395">
  <g id="Group_173" data-name="Group 173" transform="translate(0.058 -0.042)">
    <circle id="Ellipse_101" data-name="Ellipse 101" cx="67.3" cy="67.3" r="67.3" transform="translate(70.2 40.2)" fill="#e0dfdf"/>
    <g id="Group_170" data-name="Group 170">
      <path id="Path_835" data-name="Path 835" d="M200.1,74.6h7.7v30.9h-3.7v1.8c0,2.1-.1,4.1-.3,6.2h.1a23.5,23.5,0,1,0-11.5-44,71.668,71.668,0,0,1,7.7,14.8ZM211.7,90h7.7v15.5h-7.7Z" fill="none"/>
      <path id="Path_836" data-name="Path 836" d="M63.8,81.6a10.673,10.673,0,0,0,9.1,10.6,65.43,65.43,0,0,1,7.9-19.3,10.432,10.432,0,0,0-6.2-2A10.734,10.734,0,0,0,63.8,81.6Z" fill="none"/>
      <path id="Path_837" data-name="Path 837" d="M190.6,167.3a6.5,6.5,0,1,0,6.5-6.5A6.487,6.487,0,0,0,190.6,167.3Zm10.5,0a4,4,0,1,1-4-4A3.949,3.949,0,0,1,201.1,167.3Z" fill="none"/>
      <path id="Path_838" data-name="Path 838" d="M13.7,117.5a11.9,11.9,0,1,0,11.9,11.9A11.928,11.928,0,0,0,13.7,117.5Zm5.9,18.2a1.538,1.538,0,0,1-1.5,1.5H9.3a1.538,1.538,0,0,1-1.5-1.5v-7.3a1.538,1.538,0,0,1,1.5-1.5H10v-1.5a3.691,3.691,0,0,1,3.7-3.7,3.63,3.63,0,0,1,3.7,3.7v1.5h.7a1.538,1.538,0,0,1,1.5,1.5Z" fill="none"/>
      <path id="Path_839" data-name="Path 839" d="M13.7,130.6a1.5,1.5,0,1,0,1.5,1.5A1.473,1.473,0,0,0,13.7,130.6Z" fill="none"/>
      <path id="Path_840" data-name="Path 840" d="M66.9,145.1a14.425,14.425,0,0,0,24.6,10.2c-.8-.7-1.5-1.5-2.3-2.3H73.5a2.006,2.006,0,0,1-2-2V139.2a2.006,2.006,0,0,1,2-2h4.7q-1.35-2.7-2.4-5.4A14.577,14.577,0,0,0,66.9,145.1Z" fill="none"/>
      <path id="Path_841" data-name="Path 841" d="M13.7,123.2a2.263,2.263,0,0,0-2.3,2.3V127H16v-1.5A2.263,2.263,0,0,0,13.7,123.2Z" fill="none"/>
      <path id="Path_842" data-name="Path 842" d="M73.5,139.2v2l7.9,4.9,1.5-1c-.3-.5-.6-.9-.9-1.4l-.6.4Z" fill="none"/>
      <path id="Path_843" data-name="Path 843" d="M196.4,140.1v-1.6c-.3.5-.6,1.1-.9,1.6Z" fill="none"/>
      <circle id="Ellipse_102" data-name="Ellipse 102" cx="4" cy="4" r="4" transform="translate(193.2 163.3)" fill="#cacaca" stroke="#686565" stroke-miterlimit="10" stroke-width="0.515"/>
      <path id="Path_844" data-name="Path 844" d="M196.6,159.1v.2a5.02,5.02,0,0,0-1.2.2l-.9-1.7a4.875,4.875,0,0,0-1.1.4l.4,1.9c-.4.2-.7.4-1.1.6l-1.5-1.3c-.3.2-.6.5-.9.7l1,1.7c-.3.3-.5.6-.8.9l-1.9-.7a4.672,4.672,0,0,0-.5,1l1.6,1.2c-.1.4-.3.7-.4,1.1h-2a4.484,4.484,0,0,0-.1,1.1l1.9.6v.1a4.1,4.1,0,0,0,.1,1.1l-1.8.8c.1.4.2.8.3,1.1l2-.2a5.36,5.36,0,0,0,.5,1.1l-1.4,1.4a5.5,5.5,0,0,0,.7.9l1.8-.9a6.034,6.034,0,0,0,.8.8l-.8,1.8a8.65,8.65,0,0,0,1,.7l1.3-1.5a11.731,11.731,0,0,0,1.1.5l-.1,2c.4.1.7.2,1.1.3l.7-1.8c.3,0,.6.1.9.1h.2l.6,1.9a3.6,3.6,0,0,0,1.1-.2v-2a3.583,3.583,0,0,0,1.1-.4l1.2,1.6c.3-.2.7-.4,1-.6l-.7-1.8a6.469,6.469,0,0,0,.9-.8l1.7,1a5.5,5.5,0,0,0,.7-.9l-1.3-1.5a10.91,10.91,0,0,0,.6-1.1l2,.3c.1-.3.3-.7.4-1.1l-1.8-.9c.1-.4.1-.8.2-1.2l1.9-.4v-.1a3.4,3.4,0,0,0-.1-1l-2-.2-.3-1.2,1.7-1.1a4.672,4.672,0,0,0-.5-1l-1.9.5a8.65,8.65,0,0,0-.7-1l1.2-1.6a6.034,6.034,0,0,0-.8-.8l-1.6,1.2a6.07,6.07,0,0,0-1-.7l.5-1.9a4.179,4.179,0,0,0-1-.4l-1.1,1.7-1.2-.3-.2-2H198V159h-1.4Zm7.1,8.2a6.5,6.5,0,1,1-6.5-6.5A6.487,6.487,0,0,1,203.7,167.3Z" fill="#686565"/>
      <path id="Path_845" data-name="Path 845" d="M125.2,25.3c-.3,0-.5.1-.8.1a2.2,2.2,0,0,1-.8-.1v17l1.5-.3V25.3Z" fill="#cacaca" stroke="#686565" stroke-miterlimit="10" stroke-width="0.515"/>
      <path id="Path_846" data-name="Path 846" d="M275.2,97.6H227.6l-.3,1.5h48V97.6Z" fill="#cacaca" stroke="#686565" stroke-linecap="round" stroke-linejoin="round" stroke-miterlimit="10" stroke-width="0.515" stroke-dasharray="10 3 102.947 5.147"/>
      <path id="Path_847" data-name="Path 847" d="M204.2,65V33H204a6.6,6.6,0,0,1-1.4-.1V65.1H204C204,65,204.1,65,204.2,65Z" fill="#cacaca" stroke="#686565" stroke-miterlimit="10" stroke-width="0.515"/>
      <path id="Path_848" data-name="Path 848" d="M203.4,16.1a8.493,8.493,0,0,0-8.5,8.5,8.4,8.4,0,0,0,7.1,8.3,6.15,6.15,0,0,0,1.4.1h.2a8.451,8.451,0,0,0-.2-16.9Z" fill="#cacaca" stroke="#686565" stroke-linecap="round" stroke-miterlimit="10" stroke-width="0.515" stroke-dasharray="5 3 102.947 5.147"/>
      <path id="Path_849" data-name="Path 849" d="M196.9,157.4l-.3,1.7h1.3v-1.7h-1Z" fill="#666" stroke="#686565" stroke-miterlimit="10" stroke-width="0.515"/>
      <path id="Path_850" data-name="Path 850" d="M206.6,145.1h1.5V114.7a7.719,7.719,0,0,1-1.5.2Z" fill="#cacaca" stroke="#686565" stroke-linejoin="round" stroke-miterlimit="10" stroke-width="0.515"/>
      <path id="Path_851" data-name="Path 851" d="M242.5,74.6V73.1H222.3a17.384,17.384,0,0,1,1.3,1.5Z" fill="#cacaca" stroke="#686565" stroke-linejoin="round" stroke-miterlimit="10" stroke-width="0.515"/>
      <path id="Path_852" data-name="Path 852" d="M193.5,42.3H192V67.8h.6c.3-.2.6-.3.9-.5Z" fill="#cacaca" stroke="#686565" stroke-miterlimit="10" stroke-width="0.515"/>
      <path id="Path_853" data-name="Path 853" d="M223.6,74.6c-.4-.5-.9-1-1.3-1.5a24.626,24.626,0,0,0-18.1-8h-1.6a25.435,25.435,0,0,0-9.1,2.3,4.053,4.053,0,0,0-.9.5c-.3.2-.7.4-1,.6a14.626,14.626,0,0,1,.9,1.3,23.5,23.5,0,1,1,11.5,44h-.1a7.72,7.72,0,0,1-.2,1.5h.3c.9,0,1.8-.1,2.7-.1.5-.1,1-.1,1.5-.2a25.288,25.288,0,0,0,19.1-15.5l.6-1.5a24.177,24.177,0,0,0,1.2-7.6A25.615,25.615,0,0,0,223.6,74.6Z" fill="#cacaca" stroke="#686565" stroke-miterlimit="10" stroke-width="0.515"/>
      <path id="Path_854" data-name="Path 854" d="M195.5,140.1l-.9,1.5h1.8v-1.5Z" fill="#26bee6"/>
      <path id="Path_855" data-name="Path 855" d="M196.4,138.6v20.6h.2l.3-1.7h1v-22C197.4,136.5,196.9,137.5,196.4,138.6Z" fill="#cacaca" stroke="#686565" stroke-miterlimit="10" stroke-width="0.515"/>
      <path id="Path_856" data-name="Path 856" d="M65.4,144.3H48.7v-12a2.958,2.958,0,0,1-1,.2,1.268,1.268,0,0,1-.6-.1v13.4H65.3V145C65.4,144.9,65.4,144.6,65.4,144.3Z" fill="#cacaca" stroke="#686565" stroke-linejoin="round" stroke-miterlimit="10" stroke-width="0.515"/>
      <path id="Path_857" data-name="Path 857" d="M44.8,128.7H27.2v1.6H44.8a3.25,3.25,0,0,1,0-1.6Z" fill="#cacaca" stroke="#686565" stroke-miterlimit="10" stroke-width="0.515"/>
      <path id="Path_858" data-name="Path 858" d="M91.5,155.3a14.422,14.422,0,1,1-15.8-23.5c-.2-.5-.4-1-.6-1.4a16.057,16.057,0,0,0-9.8,13.9v1.6a15.922,15.922,0,0,0,27.2,10.5A3.46,3.46,0,0,0,91.5,155.3Z" fill="#cacaca" stroke="#686565" stroke-linecap="round" stroke-miterlimit="10" stroke-width="0.515" stroke-dasharray="10 3 102.947 5.147"/>
      <path id="Path_859" data-name="Path 859" d="M27.2,128.7a13.5,13.5,0,1,0,0,1.6v-1.6ZM13.7,141.4a11.9,11.9,0,1,1,11.9-11.9A11.928,11.928,0,0,1,13.7,141.4Z" fill="#cacaca" stroke="#686565" stroke-linecap="round" stroke-miterlimit="10" stroke-width="0.515" stroke-dasharray="5 3 102.947 5.147"/>
      <path id="Path_860" data-name="Path 860" d="M47.7,126.4a3,3,0,0,0-2.9,2.3,1.949,1.949,0,0,0-.1.8,2.2,2.2,0,0,0,.1.8,3.017,3.017,0,0,0,2.4,2.2h0c.2,0,.4.1.6.1a3.553,3.553,0,0,0,1-.2,3.033,3.033,0,0,0,2.1-2.9A3.272,3.272,0,0,0,47.7,126.4Z" fill="#cacaca" stroke="#686565" stroke-miterlimit="10" stroke-width="0.515"/>
      <path id="Path_861" data-name="Path 861" d="M158.3,196.2h1.6V170.1a8.8,8.8,0,0,1-1.5.5v25.6Z" fill="#cacaca" stroke="#686565" stroke-miterlimit="10" stroke-width="0.515"/>
      <path id="Path_862" data-name="Path 862" d="M159.7,195.5h-1.2a6.913,6.913,0,1,0,7.5,6.9A6.874,6.874,0,0,0,159.7,195.5Z" fill="#cacaca" stroke="#686565" stroke-miterlimit="10" stroke-width="0.515"/>
      <path id="Path_863" data-name="Path 863" d="M118.3,201h1.5V171.4c-.5-.1-1-.3-1.5-.4Z" fill="#cacaca" stroke="#686565" stroke-linejoin="round" stroke-miterlimit="10" stroke-width="0.515"/>
      <path id="Path_864" data-name="Path 864" d="M125.2,16.4V.3h-1.5V16.4c.3,0,.5-.1.8-.1S124.9,16.4,125.2,16.4Z" fill="#cacaca" stroke="#686565" stroke-linejoin="round" stroke-miterlimit="10" stroke-width="0.515"/>
      <path id="Path_865" data-name="Path 865" d="M125.2,16.4c-.3,0-.5-.1-.8-.1a2.2,2.2,0,0,0-.8.1,4.5,4.5,0,0,0-3.7,4.4,4.423,4.423,0,0,0,3.7,4.4c.3,0,.5.1.8.1a2.2,2.2,0,0,0,.8-.1,4.466,4.466,0,0,0,0-8.8Zm-.8,7.4a3,3,0,0,1,0-6,2.946,2.946,0,0,1,3,3A3.009,3.009,0,0,1,124.4,23.8Z" fill="#cacaca" stroke="#686565" stroke-miterlimit="10" stroke-width="0.515"/>
      <path id="Path_866" data-name="Path 866" d="M193.5,34.7c-.3,0-.5-.1-.8-.1a2.2,2.2,0,0,0-.8.1,4.5,4.5,0,0,0-3.7,4.4,4.423,4.423,0,0,0,3.7,4.4c.3,0,.5.1.8.1a2.2,2.2,0,0,0,.8-.1,4.466,4.466,0,0,0,0-8.8Zm-.8,7.4a3.009,3.009,0,0,1-3-3,3,3,0,1,1,3,3Z" fill="#cacaca" stroke="#686565" stroke-miterlimit="10" stroke-width="0.515"/>
      <path id="Path_867" data-name="Path 867" d="M207.8,74.6h-7.7v9.8a66.96,66.96,0,0,1,4,21.1h3.7Z" fill="#cacaca" stroke="#686565" stroke-linejoin="round" stroke-miterlimit="10" stroke-width="0.515"/>
      <rect id="Rectangle_185" data-name="Rectangle 185" width="7.7" height="15.5" transform="translate(211.7 90)" fill="#cacaca" stroke-dasharray="10 3 102.947 5.147" stroke-linecap="round" stroke-linejoin="round" stroke-miterlimit="10" stroke-width="0.515" stroke="#686565"/>
      <path id="Path_868" data-name="Path 868" d="M18.1,126.9h-.7v-1.5a3.691,3.691,0,0,0-3.7-3.7,3.63,3.63,0,0,0-3.7,3.7v1.5H9.3a1.538,1.538,0,0,0-1.5,1.5v7.3a1.538,1.538,0,0,0,1.5,1.5h8.8a1.538,1.538,0,0,0,1.5-1.5v-7.3A1.538,1.538,0,0,0,18.1,126.9Zm-4.4,6.6a1.5,1.5,0,1,1,1.5-1.5A1.538,1.538,0,0,1,13.7,133.5Zm2.3-6.6H11.5v-1.5a2.3,2.3,0,1,1,4.6,0v1.5Z" fill="#cacaca" stroke="#686565" stroke-miterlimit="10" stroke-width="0.515"/>
      <path id="Path_869" data-name="Path 869" d="M81.3,146.1l-7.9-4.9v-2l7.9,4.9.6-.4c-1.4-2.1-2.6-4.3-3.8-6.5H73.4a2.006,2.006,0,0,0-2,2V151a2.006,2.006,0,0,0,2,2H89.1a80.447,80.447,0,0,1-6.4-7.8Z" fill="#cacaca" stroke="#686565" stroke-miterlimit="10" stroke-width="0.515"/>
      <path id="Path_870" data-name="Path 870" d="M70.3,108.4l-.4-.1c-1-.2-2.1-.4-3.1-.7l-.4-.1.4-5.3c-.7-.3-1.5-.6-2.2-.9L61,105.2l-.4-.2a15.1,15.1,0,0,1-2.6-1.8l-.3-.3L60,98.1a13.65,13.65,0,0,1-1.7-1.7l-4.8,2.4-.3-.3a15.1,15.1,0,0,1-1.8-2.6l-.2-.4,3.9-3.7a14.722,14.722,0,0,1-1-2.2l-5.3.5-.1-.4a28.063,28.063,0,0,1-.8-3.1l-.1-.4,4.9-2c-.1-.8-.1-1.6-.2-2.4l-5.1-1.5v-.4a29.092,29.092,0,0,1,.4-3.1l.1-.4,5.3-.1c.2-.8.5-1.6.7-2.4l-4.3-3.3.2-.4a14.277,14.277,0,0,1,1.5-2.7l.2-.4,5,1.8c.5-.7,1-1.3,1.6-2l-2.8-4.6.3-.3a21.976,21.976,0,0,1,2.3-2l.3-.3,4,3.5a25.293,25.293,0,0,1,2.2-1.3l-1-5.3.4-.2a24.69,24.69,0,0,1,2.9-1l.4-.1L69.6,60a23.356,23.356,0,0,1,2.6-.4l1-5.3h.4c1,0,2,0,3,.1H77l.6,5.3a10.957,10.957,0,0,1,2.6.6L83,55.8l.4.1a16.855,16.855,0,0,1,2.8,1.2l.4.2-1.4,5.2c.5.3,1,.7,1.6,1.1l.5.3-.4.4a64.591,64.591,0,0,0-6.2,8.6l-.3.5-.5-.3A10.362,10.362,0,0,0,74,71.2,10.243,10.243,0,0,0,63.8,81.4a10.131,10.131,0,0,0,8.6,10.1l.5.1-.1.5a66.935,66.935,0,0,0-1.7,12.7v.1Zm-2.8-1.7a14.191,14.191,0,0,0,2.2.5l.9-2.4a71.363,71.363,0,0,1,1.6-12.3,11.22,11.22,0,1,1,8.4-20.4,85.358,85.358,0,0,1,5.6-7.8,8.049,8.049,0,0,0-1.4-.9l-.3-.2,1.3-5.1a15.386,15.386,0,0,0-1.9-.8L81,61.8l-.4-.1a16.54,16.54,0,0,0-3.2-.7l-.4-.1-.6-5.2a14.769,14.769,0,0,0-2.1-.1l-1,5.2h-.4a16.449,16.449,0,0,0-3.2.5l-.4.1-2.5-4.7a15.873,15.873,0,0,0-2,.7l.9,5.2-.4.2a25.432,25.432,0,0,0-2.8,1.6l-.3.2-4-3.5a10.7,10.7,0,0,0-1.6,1.4L59.4,67l-.3.3a24.334,24.334,0,0,0-2,2.5l-.1.4-5-1.8a17.377,17.377,0,0,0-1,1.9l4.2,3.2-.1.4a17.1,17.1,0,0,0-.9,3l-.2.3-5.3.1c-.1.7-.2,1.4-.3,2.2L53.5,81v.6a26.352,26.352,0,0,0,.2,2.8l.1.4-4.9,2a15.984,15.984,0,0,0,.5,2.1l5.3-.5.1.4c.4.9.8,1.9,1.3,2.8l.2.3-3.8,3.6a20.28,20.28,0,0,0,1.3,1.8L58.6,95l.3.3A20.789,20.789,0,0,0,61,97.4l.3.3L59,102.5a18.756,18.756,0,0,0,1.8,1.2l3.6-3.9.3.2a13.9,13.9,0,0,0,2.8,1.2l.4.1Z" fill="#686565"/>
      <path id="Path_871" data-name="Path 871" d="M145,95.6a4.93,4.93,0,0,0-4.8-4.1,4.8,4.8,0,0,0,0,9.6A4.93,4.93,0,0,0,145,97Zm-4.8,4.9a4,4,0,1,1,4-4A4.012,4.012,0,0,1,140.2,100.5Z" fill="#f87429" stroke="#f13001" stroke-miterlimit="10" stroke-width="0.515"/>
      <path id="Path_872" data-name="Path 872" d="M133.9,111.2v.8H192c-.9-.5-1.7-1-2.5-1.5H133.9Z" fill="#f87429" stroke="#f13001" stroke-linecap="round" stroke-miterlimit="10" stroke-width="0.515" stroke-dasharray="30.884 5.147 102.947 5.147"/>
      <path id="Path_873" data-name="Path 873" d="M125.2,89.7c-.5-.2-1.1-.4-1.5-.6v8l1.5.6Z" fill="#f87429" stroke="#f13001" stroke-miterlimit="10" stroke-width="0.515"/>
      <path id="Path_874" data-name="Path 874" d="M123.6,73.8V74c.2-.1.3-.2.5-.2Z" fill="#f87429" stroke="#f13001" stroke-miterlimit="10" stroke-width="0.515"/>
      <path id="Path_875" data-name="Path 875" d="M136,82.4h44.2l.6-1.5H136Z" fill="#f87429" stroke="#f13001" stroke-linecap="round" stroke-miterlimit="10" stroke-width="0.515" stroke-dasharray="30.884 5.147 102.947 5.147"/>
      <path id="Path_876" data-name="Path 876" d="M145,96.4a2.2,2.2,0,0,1-.1.8h35a8.33,8.33,0,0,1-.4-1.5H145Z" fill="#f87429" stroke="#f13001" stroke-miterlimit="10" stroke-width="0.515"/>
      <path id="Path_877" data-name="Path 877" d="M196.4,113.9v24.7a29.617,29.617,0,0,0,1.5-3.1V114.3C197.4,114.2,196.9,114,196.4,113.9Z" fill="#f87429" stroke="#f13001" stroke-miterlimit="10" stroke-width="0.515"/>
      <path id="Path_878" data-name="Path 878" d="M180.5,90a23.339,23.339,0,0,1,11.9-20.4,14.626,14.626,0,0,1-.9-1.3,24.94,24.94,0,0,0-10.8,12.5l-.6,1.5a24.346,24.346,0,0,0-1.2,7.7,25.966,25.966,0,0,0,.6,5.6c.1.5.3,1,.4,1.5a24.805,24.805,0,0,0,9.6,13.3,12.75,12.75,0,0,0,2.5,1.5,21.65,21.65,0,0,0,4.4,1.9,8.331,8.331,0,0,0,1.5.4,22.473,22.473,0,0,0,5.8.7c.1-.5.1-1,.2-1.5A23.3,23.3,0,0,1,180.5,90Z" fill="#f87429" stroke="#f13001" stroke-miterlimit="10" stroke-width="0.515"/>
      <path id="Path_879" data-name="Path 879" d="M123.6,42.3V73.9h.5c.3-.1.7-.3,1-.4V41.9C124.7,42,124.2,42.1,123.6,42.3Z" fill="#f87429" stroke="#f13001" stroke-miterlimit="10" stroke-width="0.515"/>
      <path id="Path_880" data-name="Path 880" d="M131.1,73.8V62.3a1.949,1.949,0,0,1-.8.1,2.2,2.2,0,0,1-.8-.1V73.4c.4.1.9.3,1.3.4Z" fill="#f87429" stroke="#f13001" stroke-miterlimit="10" stroke-width="0.515"/>
      <path id="Path_881" data-name="Path 881" d="M165,140.1c0,.3.1.5.1.8a2.2,2.2,0,0,1-.1.8h29.6l.9-1.5H165Z" fill="#f87429" stroke="#f13001" stroke-miterlimit="10" stroke-width="0.515"/>
      <path id="Path_882" data-name="Path 882" d="M165,140.1a5.978,5.978,0,1,0-5.9,6.8h0a6.024,6.024,0,0,0,5.9-5.2c0-.3.1-.5.1-.8A2.2,2.2,0,0,0,165,140.1Z" fill="#f87429" stroke="#f13001" stroke-linecap="round" stroke-miterlimit="10" stroke-width="0.515" stroke-dasharray="5 3 102.947 5.147"/>
      <path id="Path_883" data-name="Path 883" d="M101,81.9l-2.3.5H119V80.9H101v1Z" fill="#f87429" stroke="#f13001" stroke-miterlimit="10" stroke-width="0.515"/>
      <path id="Path_884" data-name="Path 884" d="M159.1,146.9h-.8v23.7c.5-.2,1-.3,1.5-.5V146.9Z" fill="#f87429" stroke="#f13001" stroke-miterlimit="10" stroke-width="0.515"/>
      <path id="Path_885" data-name="Path 885" d="M159.1,146.9Z" fill="#f87429" stroke="#f13001" stroke-miterlimit="10" stroke-width="0.515"/>
      <path id="Path_886" data-name="Path 886" d="M133.9,110.5a14.913,14.913,0,0,0-8.7-12.8l-1.5-.6a13.855,13.855,0,0,0-4.6-.7,14.911,14.911,0,0,0-.8,29.8h1.6A14.926,14.926,0,0,0,134,112.1v-.8A2.485,2.485,0,0,1,133.9,110.5ZM119,124.6a13.4,13.4,0,1,1,13.4-13.4A13.4,13.4,0,0,1,119,124.6Z" fill="#fdceb3" stroke="#f13001" stroke-linecap="round" stroke-miterlimit="10" stroke-width="0.515" stroke-dasharray="5.147 4 102.947 5.147"/>
      <path id="Path_887" data-name="Path 887" d="M130.3,55.2a3.594,3.594,0,0,0-.8,7.1,1.949,1.949,0,0,0,.8.1,2.2,2.2,0,0,0,.8-.1,3.635,3.635,0,0,0,2.8-3.5A3.585,3.585,0,0,0,130.3,55.2Zm0,5.7a2.112,2.112,0,0,1-2.1-2.1,2.1,2.1,0,1,1,2.1,2.1Z" fill="#f87429" stroke="#f13001" stroke-miterlimit="10" stroke-width="0.515"/>
      <path id="Path_888" data-name="Path 888" d="M125.2,103.6H112.9a1.538,1.538,0,0,0-1.5,1.5v13.8l3.1-3.1h10.8a1.538,1.538,0,0,0,1.5-1.5v-9.2A1.708,1.708,0,0,0,125.2,103.6Zm-8.5,6.9h-1.5V109h1.5Zm3.1,0h-1.5V109h1.5Zm3.1,0h-1.5V109h1.5Z" fill="#fdceb3" stroke="#f13001" stroke-linecap="round" stroke-miterlimit="10" stroke-width="0.515" stroke-dasharray="36.031 5.147 25.737 5.147"/>
      <path id="Path_889" data-name="Path 889" d="M200.1,105.5h4a66.96,66.96,0,0,0-4-21.1Z" fill="#f87429" stroke="#f13001" stroke-miterlimit="10" stroke-width="0.515"/>
      <rect id="Rectangle_186" data-name="Rectangle 186" width="7.7" height="21.2" transform="translate(188.5 84.3)" fill="#f87429" stroke-dasharray="30.884 5.147 102.947 5.147" stroke-linecap="round" stroke-linejoin="round" stroke-miterlimit="10" stroke-width="0.515" stroke="#f13001"/>
      <path id="Path_890" data-name="Path 890" d="M94.4,154.2h23.8v-1.5H95.4A13.029,13.029,0,0,1,94.4,154.2Z" fill="#f87429" stroke="#f13001" stroke-miterlimit="10" stroke-width="0.515"/>
      <path id="Path_891" data-name="Path 891" d="M81.3,129.2a15.439,15.439,0,0,0-6.1,1.2c.2.5.4,1,.6,1.4a14.712,14.712,0,0,1,5.6-1.1,14.425,14.425,0,0,1,10.2,24.6l1.1,1.1a12.387,12.387,0,0,0,1.8-2.2,11.906,11.906,0,0,0,.9-1.5,15.751,15.751,0,0,0,1.9-7.5A15.983,15.983,0,0,0,81.3,129.2Z" fill="#f87429" stroke="#f13001" stroke-miterlimit="10" stroke-width="0.515"/>
      <path id="Path_892" data-name="Path 892" d="M119,126.2h-.8V171a8.33,8.33,0,0,0,1.5.4V126.1A5.636,5.636,0,0,1,119,126.2Z" fill="#f87429" stroke="#f13001" stroke-miterlimit="10" stroke-width="0.515"/>
      <path id="Path_893" data-name="Path 893" d="M151.1,49.4a2.2,2.2,0,0,0,.1.8l-1.3.5c.1.3.1.5.2.8l1.4-.1c.1.3.2.5.3.8l-1,1a3.039,3.039,0,0,0,.5.7l1.3-.6.6.6-.6,1.3a4.233,4.233,0,0,0,.7.5l1-1a6.89,6.89,0,0,0,.8.3l-.1,1.4c.3.1.5.1.8.2l.5-1.3h.9l.4,1.4c.3,0,.6-.1.8-.1V55.2c.3-.1.5-.2.8-.3l.9,1.1c.2-.1.5-.3.7-.4l-.5-1.3c.2-.2.5-.3.7-.5l1.2.7a2.652,2.652,0,0,0,.5-.6l-.9-1.1a2.01,2.01,0,0,0,.4-.8l1.4.2a6.89,6.89,0,0,0,.3-.8l-1.3-.6a2.768,2.768,0,0,0,.1-.9l1.4-.3v-.8l-1.4-.1a2.92,2.92,0,0,0-.2-.9l1.2-.8c-.1-.2-.2-.5-.3-.7l-1.4.4a4.234,4.234,0,0,0-.5-.7l.8-1.1-.6-.6-1.1.8a3.039,3.039,0,0,0-.7-.5l.4-1.4c-.2-.1-.5-.2-.7-.3l-.8,1.2a2.92,2.92,0,0,0-.9-.2l-.2-1.4h-.8l-.3,1.4c-.3,0-.6.1-.9.1l-.7-1.3c-.3.1-.5.2-.8.3l.3,1.4c-.3.1-.5.3-.8.4l-1.1-.9c-.2.2-.4.3-.6.5l.7,1.2a1.794,1.794,0,0,0-.5.7l-1.3-.5c-.1.2-.3.5-.4.7l1.1.9c-.1.3-.2.5-.3.8h-1.4c0,.3-.1.5-.1.8l1.3.4Zm5.7-3.6a3.6,3.6,0,1,1-3.6,3.6A3.585,3.585,0,0,1,156.8,45.8Z" fill="#f87429" stroke="#f13001" stroke-miterlimit="10" stroke-width="0.515"/>
      <path id="Path_894" data-name="Path 894" d="M91.2,151V139.2a2.006,2.006,0,0,0-2-2h-11a61.119,61.119,0,0,0,3.8,6.5l7.3-4.5v2l-6.3,4a53.119,53.119,0,0,0,6.4,7.8A1.977,1.977,0,0,0,91.2,151Z" fill="#f87429" stroke="#f13001" stroke-miterlimit="10" stroke-width="0.515" stroke-dasharray="30.884 5.147 102.947 5.147"/>
      <path id="Path_895" data-name="Path 895" d="M98.7,82.4l2.3-.5V80.8c0-.7-.1-1.3-.1-1.9l-5.3-.5a19.807,19.807,0,0,0-.8-3.3l4.5-2.9-1.2-2.7L93,70.9a27.5,27.5,0,0,0-1.9-2.8l3.1-4.3-2.1-2.1-4.3,3.2-.9-.6a64.591,64.591,0,0,0-6.2,8.6,10.686,10.686,0,0,1-6.2,19.4c-.6,0-1.1-.1-1.7-.1A66.9,66.9,0,0,0,71.1,105l.8-2.1a21.053,21.053,0,0,0,2.5.2H75l1.6,5.1c1-.1,2.1-.2,3.1-.4v-5.3c1-.3,2-.6,3-1l3.3,4.2c.9-.4,1.8-1,2.7-1.5l-1.9-5a24.335,24.335,0,0,0,2.5-2l4.6,2.7c.7-.7,1.3-1.5,2-2.3l-3.6-3.9c.6-.9,1.1-1.9,1.6-2.8l5.3.9a24.69,24.69,0,0,0,1-2.9l-4.7-2.4c.2-1.1.4-2.2.5-3.3Z" fill="#f87429" stroke="#f13001" stroke-linejoin="round" stroke-miterlimit="10" stroke-width="0.515"/>
      <path id="Path_896" data-name="Path 896" d="M130.9,73.8a6.468,6.468,0,0,0-1.3-.4,7.107,7.107,0,0,0-2.1-.3,8.524,8.524,0,0,0-2.3.3,3,3,0,0,0-1,.4c-.2.1-.3.2-.5.2a8.414,8.414,0,0,0,0,15,4.714,4.714,0,0,0,1.5.6A8.554,8.554,0,0,0,136,81.4,8.421,8.421,0,0,0,130.9,73.8Z" fill="#fdceb3" stroke="#f13001" stroke-linecap="round" stroke-miterlimit="10" stroke-width="0.515" stroke-dasharray="30.884 5.147 102.947 5.147"/>
    </g>
    <g id="Group_172" data-name="Group 172">
      <g id="Group_171" data-name="Group 171" opacity="0.52">
        <path id="Path_897" data-name="Path 897" d="M194.5,77.2A66.642,66.642,0,0,1,76.2,138.6c-.4-.7-.7-1.4-1.1-2.1A66.642,66.642,0,0,0,193.3,75.1,11.252,11.252,0,0,1,194.5,77.2Z" fill="#fff"/>
        <path id="Path_898" data-name="Path 898" d="M182.9,59.2a66.676,66.676,0,0,0-94.8,87.1,65.94,65.94,0,0,0,14.3,18.6A66.681,66.681,0,1,1,182.9,59.2Z" fill="#fff"/>
      </g>
      <rect id="Rectangle_187" data-name="Rectangle 187" width="15.9" height="15.9" transform="matrix(0.887, -0.461, 0.461, 0.887, 161.146, 170.381)" fill="#b6b4b4"/>
      <path id="Path_899" data-name="Path 899" d="M137.6,176.2A68.666,68.666,0,1,1,198.4,75.9h0a68.629,68.629,0,0,1-60.8,100.3ZM137.4,43a63.589,63.589,0,0,0-29.7,7.3,64.586,64.586,0,1,0,91.4,76.8A64.707,64.707,0,0,0,137.4,43Z"/>
      <rect id="Rectangle_188" data-name="Rectangle 188" width="19.3" height="66.7" transform="matrix(0.887, -0.461, 0.461, 0.887, 166.993, 185.207)" fill="#838181" stroke="#686565" stroke-linejoin="round" stroke-miterlimit="10" stroke-width="1.544"/>
    </g>
    <line id="Line_22" data-name="Line 22" x2="20.9" y2="39.6" transform="translate(176.8 194.3)" fill="none" stroke="#b6b4b4" stroke-linecap="round" stroke-miterlimit="10" stroke-width="3.603" stroke-dasharray="5.147 10.295 102.947 5.147"/>
  </g>
</svg>
